…
# remove punctuation, convert to lowercase, add id for each tweet!
sadiq_tweets_paired_words <- sadiq_tweets %>%
  dplyr::select(stripped_text) %>%
  unnest_tokens(paired_words, stripped_text, token = "ngrams", n = 2)

sadiq_tweets_paired_words %>%
  count(paired_words, sort = TRUE)
## # A tibble: 62,682 x 2
##        paired_words     n
##               <chr> <int>
##  1   climate change  1282
##  2           in the   636
##  3           of the   403
##  4       the arctic   341
##  5 climatechange is   299
##  6       learn more   298
##  7        more here   279
##  8 of climatechange   250
##  9             is a   212
## 10           on the   209
## # ... with 62,672 more rows
…
